[
  {
    "name": "Albania",
    "code": "AL",
    "img": "flags/flag-albania.svg"
  },
  {
    "name": "Armenia",
    "code": "AR",
    "img": "flags/flag-armenia.svg"
  },
  {
    "name": "Austria",
    "code": "AU",
    "img": "flags/flag-austria.svg"
  },
  {
    "name": "Belarus",
    "code": "BE",
    "img": "flags/flag-belarus.svg"
  },
  {
    "name": "Bosnia",
    "code": "BO",
    "img": "flags/flag-bosnia.svg"
  },
  {
    "name": "Bulgaria",
    "code": "BU",
    "img": "flags/flag-bulgaria.svg"
  },

  {
    "name": "Europe",
    "code": "EU",
    "img": "flags/flag-europe.svg"
  },
  {
    "name": "Georgia",
    "code": "GE",
    "img": "flags/flag-georgia.svg"
  },
  {
    "name": "Italy",
    "code": "IT",
    "img": "flags/flag-italy.svg"
  },
  {
    "name": "Kosovo",
    "code": "KO",
    "img": "flags/flag-kosovo.svg"
  },
  {
    "name": "Macedonia",
    "code": "MK",
    "img": "flags/flag-macedonia.svg"
  },
  {
    "name": "Montenegro",
    "code": "MO",
    "img": "flags/flag-montenegro.svg"
  },
  {
    "name": "Netherlands",
    "code": "NE",
    "img": "flags/flag-netherlands.svg"
  },
  {
    "name": "Nigeria",
    "code": "NI",
    "img": "flags/flag-nigeria.svg"
  },
  {
    "name": "Poland",
    "code": "PO",
    "img": "flags/flag-poland.svg"
  },
  {
    "name": "Portugal",
    "code": "PT",
    "img": "flags/flag-portugal.svg"
  },
  {
    "name": "Romania",
    "code": "RO",
    "img": "flags/flag-romania.svg"
  },
  {
    "name": "Russia",
    "code": "RU",
    "img": "flags/flag-russia.svg"
  },
  {
    "name": "Serbia",
    "code": "SR",
    "img": "flags/flag-serbia.svg"
  },
  {
    "name": "Slovenia",
    "code": "SL",
    "img": "flags/flag-slovenia.svg"
  },
  {
    "name": "Turkey",
    "code": "TR",
    "img": "flags/flag-turkey.svg"
  },
  {
    "name": "United Kingdom",
    "code": "UK",
    "img": "flags/flag-uk.svg"
  },
  {
    "name": "Ukraine",
    "code": "UK",
    "img": "flags/flag-ukraine.svg"
  },
  {
    "name": "USA",
    "code": "US",
    "img": "flags/flag-usa.svg"
  }
]
