[
  {
    "name": "Isabelle Nolan",
    "avatar": "users/user-1.png"
  },
  {
    "name": "Jaylan Spears",
    "avatar": "users/user-2.png"
  },
  {
    "name": "Camille Mercado",
    "avatar": "users/user-3.png"
  },
  {
    "name": "Felipe Barnes",
    "avatar": "users/user-4.png"
  },
  {
    "name": "Shaylee Lamb",
    "avatar": "users/user-5.png"
  },
  {
    "name": "Karen Waters",
    "avatar": "users/user-6.png"
  },
  {
    "name": "Lydia Cooley",
    "avatar": "users/user-7.png"
  },
  {
    "name": "Anabelle Hudson",
    "avatar": "users/user-8.png"
  },
  {
    "name": "Kelsey Daniels",
    "avatar": "users/user-9.png"
  },
  {
    "name": "Ricardo Conway",
    "avatar": "users/user-10.png"
  },
  {
    "name": "Tommy Petty",
    "avatar": "users/user-11.png"
  },
  {
    "name": "Mattie Richmond",
    "avatar": "users/user-1.png"
  },
  {
    "name": "Theodore Cervantes",
    "avatar": "users/user-2.png"
  },
  {
    "name": "Evan Villegas",
    "avatar": "users/user-3.png"
  },
  {
    "name": "Miguel Hutchinson",
    "avatar": "users/user-4.png"
  },
  {
    "name": "Gabriella Riley",
    "avatar": "users/user-5.png"
  },
  {
    "name": "Luke Jefferson",
    "avatar": "users/user-6.png"
  },
  {
    "name": "Nyla Clayton",
    "avatar": "users/user-7.png"
  },
  {
    "name": "Johnathon Pope",
    "avatar": "users/user-8.png"
  },
  {
    "name": "Giovanni Burch",
    "avatar": "users/user-9.png"
  }
]
