<svg width="15" height="15" viewBox="0 0 15 15" fill="none" xmlns="http://www.w3.org/2000/svg">
<path d="M0.299994 6.14999V6.39999H0.449994V6.64999H0.599994V6.39999H0.749994V6.14999H0.899994V5.89999H1.04999V5.64999H1.19999V5.39999H1.34999V5.14999H1.14999V4.89999H1.02499V4.64999H0.574994V4.89999H0.874994V5.14999H0.724994V5.39999H0.574994V5.64999H0.424994V5.39999H0.299994C0.249994 5.59999 0.199994 5.82499 0.149994 6.02499V6.12499H0.299994V6.14999Z" fill="white"/>
<path d="M2.02501 2.375L1.95001 2.45H2.02501V2.375Z" fill="white"/>
<path d="M3.19999 1.47499H3.04999V1.72499H2.89999V1.97499H2.74999V2.22499H2.59999V2.47499H2.44999V2.22499H2.29999V2.09999L2.14999 2.24999V2.47499H2.29999V2.72499H2.44999V2.97499H2.29999V3.22499H2.14999V3.47499H1.99999V3.22499H1.87499V2.97499H1.74999V2.72499C1.69999 2.77499 1.64999 2.84999 1.59999 2.89999V2.97499H1.54999C1.49999 2.99999 1.47499 3.02499 1.44999 3.07499V3.19999H1.34999C1.32499 3.22499 1.32499 3.24999 1.29999 3.27499V3.42499H1.19999C1.14999 3.49999 1.09999 3.59999 1.04999 3.67499H1.17499V3.92499H1.32499V4.17499H1.47499V4.42499H1.62499V4.67499H1.74999V4.42499H1.89999V4.17499H2.04999V3.92499H2.19999V3.67499H2.34999V3.42499H2.49999V3.17499H2.64999V3.42499H2.74999V3.67499H2.89999V3.92499H3.04999V4.17499H3.19999V4.42499H3.34999V3.92499H3.19999V3.67499H3.34999V2.94999H3.19999V3.19999H3.04999V3.44999H2.89999V3.19999H2.74999V2.94999H2.59999V2.69999H2.74999V2.44999H2.89999V2.19999H3.04999V2.44999H3.19999V2.69999H3.34999V1.94999H3.19999V1.69999H3.34999V1.27499C3.29999 1.29999 3.24999 1.34999 3.19999 1.37499V1.47499ZM1.74999 3.92499H1.59999V3.42499H1.74999V3.92499Z" fill="white"/>
<path d="M0.15 8.35001V8.10001H0.3V7.85001H0.45V7.60001H0.6V7.35001H0.425V7.10001H0.3V6.85001H0.15V6.60001H0.05C0.025 6.92501 0 7.20001 0 7.50001C0 7.80001 0.025 8.07501 0.05 8.35001H0.15Z" fill="white"/>
<path d="M3.2 6.87499H3.05V7.12499H2.9V7.37499H2.75V7.62499H2.9V7.87499H3.05V8.12499H3.2V8.34999H3.325V6.64999H3.2V6.87499Z" fill="white"/>
<path d="M1.87501 2.52499C1.82501 2.57499 1.77501 2.64999 1.72501 2.69999H1.87501V2.52499Z" fill="white"/>
<path d="M1.95001 12.55L2.02501 12.625V12.55H1.95001Z" fill="white"/>
<path d="M1.75 12.3C1.8 12.35 1.85 12.425 1.9 12.475V12.3H1.75Z" fill="white"/>
<path d="M3.19999 13.275V13.025H3.34999V12.275H3.19999V12.525H3.04999V12.775H2.89999V12.525H2.74999V12.275H2.59999V12.025H2.74999V11.775H2.89999V11.525H3.04999V11.775H3.19999V12.025H3.34999V11.275H3.19999V11.025H3.34999V10.525H3.19999V10.775H3.04999V11.025H2.89999V11.275H2.74999V11.525H2.59999V11.775H2.44999V11.525H2.29999V11.275H2.14999V11.025H1.99999V10.775H1.87499V10.525H1.74999V10.275H1.59999V10.525H1.44999V10.775H1.29999V11.025H1.14999V11.275H1.04999C1.09999 11.35 1.14999 11.45 1.19999 11.525H1.29999V11.675C1.32499 11.7 1.32499 11.725 1.34999 11.75H1.44999V11.875C1.47499 11.975 1.49999 12 1.54999 12.05H1.59999V12.125C1.64999 12.175 1.69999 12.25 1.74999 12.3V12.05H1.89999V11.8H2.04999V11.55H2.19999V11.8H2.34999V12.05H2.49999V12.3H2.34999V12.55H2.19999V12.775L2.34999 12.925V12.8H2.49999V12.55H2.64999V12.8H2.74999V13.05H2.89999V13.3H3.04999V13.55H3.19999V13.65C3.24999 13.675 3.29999 13.725 3.34999 13.75V13.3L3.19999 13.275ZM1.74999 11.55H1.59999V11.05H1.74999V11.55Z" fill="white"/>
<path d="M3.19999 8.85001H3.04999V8.60001H2.89999V8.35001H2.74999V8.60001H2.59999V8.85001H2.47499V9.10001H2.32499V9.35001H2.17499V9.60001H2.02499V9.82501H2.17499V10.075H2.32499V10.325H2.74999V10.075H2.47499V9.82501H2.59999V9.60001H2.74999V9.35001H2.89999V9.60001H3.04999V9.82501H3.19999V10.075H3.32499V9.60001H3.19999V9.35001H3.32499V9.10001H3.19999V8.85001Z" fill="white"/>
<path d="M3.19999 5.17499H3.04999V5.39999H2.89999V5.64999H2.74999V5.39999H2.59999V5.17499H2.47499V4.92499H2.74999V4.67499H2.32499V4.92499H2.17499V5.17499H2.02499V5.39999H2.17499V5.64999H2.32499V5.89999H2.47499V6.14999H2.59999V6.39999H2.74999V6.64999H2.89999V6.39999H3.04999V6.14999H3.19999V5.89999H3.32499V5.64999H3.19999V5.39999H3.32499V4.92499H3.19999V5.17499Z" fill="white"/>
<path d="M0.424994 9.35001H0.574994V9.60001H0.724994V9.85001H0.874994V10.1H0.574994V10.35H0.999994V10.1H1.14999V9.85001H1.29999V9.60001H1.14999V9.35001H1.02499V9.10001H0.874994V8.85001H0.724994V8.60001H0.574994V8.35001H0.424994V8.60001H0.299994V8.85001H0.149994V8.95001C0.199994 9.17501 0.249994 9.37501 0.299994 9.57501H0.424994V9.35001Z" fill="white"/>
<path d="M2.025 6.14999H1.875V5.89999H1.75V5.64999H1.6V5.89999H1.45V6.14999H1.3V6.39999H1.15V6.64999H1.025V6.89999H0.875V8.14999H1.025V8.39999H1.175V8.64999H1.325V8.89999H1.475V9.14999H1.625V9.39999H1.75V9.14999H1.9V8.89999H2.05V8.64999H2.2V8.39999H2.35V8.14999H2.5V6.89999H2.35V6.64999H2.2V6.39999H2.05L2.025 6.14999ZM1.15 7.47499V7.62499H1.025V7.37499H1.175V7.47499H1.15ZM2.175 7.52499V7.37499H2.325V7.62499H2.175V7.52499ZM1.6 6.14999H1.75V6.39999H1.6V6.14999ZM1.75 8.84999H1.6V8.59999H1.75V8.84999ZM2.025 7.12499H1.875V7.37499H1.75V7.62499H1.9V7.87499H2.05V8.37499H1.875V8.12499H1.75V7.87499H1.6V8.12499H1.45V8.37499H1.3V7.87499H1.45V7.62499H1.6V7.37499H1.45V7.12499H1.3V6.62499H1.45V6.87499H1.6V7.12499H1.75V6.87499H1.9V6.62499H2.05L2.025 7.12499Z" fill="white"/>
<path d="M1.29998 3.27499C1.27498 3.32499 1.22498 3.37499 1.19998 3.42499H1.29998V3.27499Z" fill="#C8313E"/>
<path d="M1.44998 3.20001V3.07501C1.42498 3.12501 1.39998 3.15001 1.34998 3.20001H1.44998Z" fill="#C8313E"/>
<path d="M1.59999 2.95V2.875C1.57499 2.9 1.57499 2.925 1.54999 2.95H1.59999Z" fill="#C8313E"/>
<path d="M1.02499 7.475V7.625H1.14999V7.375H1.02499V7.475Z" fill="#C8313E"/>
<path d="M3.19998 3.70001H3.34998V3.95001H3.19998V3.70001Z" fill="#C8313E"/>
<path d="M1.875 2.95001V3.20001H2.025V3.45001H2.175V3.20001H2.325V2.95001H2.475V2.70001H2.325V2.45001H2.175V2.22501L2.025 2.37501V2.45001H1.95L1.875 2.52501V2.70001H1.75V2.95001H1.875Z" fill="#C8313E"/>
<path d="M3.19998 1.72501H3.34998V1.97501H3.19998V1.72501Z" fill="#C8313E"/>
<path d="M3.19998 2.45001H3.04998V2.22501H2.89998V2.45001H2.74998V2.70001H2.59998V2.95001H2.74998V3.20001H2.89998V3.45001H3.04998V3.20001H3.19998V2.95001H3.32498V2.70001H3.19998V2.45001Z" fill="#C8313E"/>
<path d="M2.47498 2.225V2.475H2.62498V2.225H2.74998V1.975H2.89998V1.725H3.04998V1.475H3.19998V1.375C2.92498 1.575 2.64998 1.775 2.42498 2C2.39998 2.025 2.37498 2.05 2.32498 2.075V2.2H2.47498V2.225Z" fill="#C8313E"/>
<path d="M1.64998 3.45001H1.59998V3.92501H1.74998V3.45001H1.67498H1.64998Z" fill="#C8313E"/>
<path d="M1.87499 6.87499H1.74999V7.12499H1.59999V6.87499H1.44999V6.64999H1.29999V7.12499H1.44999V7.37499H1.59999V7.62499H1.44999V7.87499H1.29999V8.34999H1.44999V8.12499H1.59999V7.87499H1.74999V8.12499H1.87499V8.34999H2.02499V7.87499H1.87499V7.62499H1.74999V7.37499H1.87499V7.12499H2.02499V6.64999H1.87499V6.87499Z" fill="#C8313E"/>
<path d="M3.19998 5.39999H3.34998V5.64999H3.19998V5.39999Z" fill="#C8313E"/>
<path d="M3.19999 4.17499H3.04999V3.92499H2.89999V3.67499H2.74999V3.42499H2.59999V3.17499H2.44999V3.42499H2.29999V3.67499H2.14999V3.92499H1.99999V4.17499H1.87499V4.42499H1.74999V4.67499H1.59999V4.42499H1.44999V4.17499H1.29999V3.92499H1.14999V3.67499H1.04999C0.899988 3.92499 0.749988 4.19999 0.624988 4.47499C0.499988 4.77499 0.399988 5.07499 0.299988 5.37499H0.424988V5.62499H0.574988V5.37499H0.724988V5.12499H0.874988V4.87499H0.574988V4.62499H0.999988V4.87499H1.14999V5.12499H1.29999V5.37499H1.14999V5.62499H1.02499V5.87499H0.874988V6.12499H0.724988V6.37499H0.574988V6.62499H0.424988V6.37499H0.299988V6.12499H0.149988V6.02499C0.0999878 6.22499 0.0749878 6.42499 0.0499878 6.62499H0.149988V6.87499H0.299988V7.12499H0.449988V7.37499H0.599988V7.62499H0.424988V7.87499H0.299988V8.12499H0.149988V8.37499H0.0499878C0.0749878 8.57499 0.0999878 8.77499 0.149988 8.97499V8.87499H0.299988V8.62499H0.449988V8.37499H0.599988V8.62499H0.749988V8.87499H0.899988V9.12499H1.04999V9.37499H1.19999V9.62499H1.34999V9.87499H1.14999V10.125H1.02499V10.375H0.574988V10.125H0.874988V9.87499H0.724988V9.62499H0.574988V9.37499H0.424988V9.62499H0.299988C0.399988 9.89999 0.499988 10.2 0.624988 10.5C0.749988 10.775 0.899988 11.05 1.04999 11.3H1.17499V11.05H1.32499V10.8H1.47499V10.55H1.62499V10.3H1.74999V10.55H1.89999V10.8H2.04999V11.05H2.19999V11.3H2.34999V11.55H2.49999V11.8H2.64999V11.55H2.74999V11.3H2.89999V11.05H3.04999V10.8H3.19999V10.55H3.34999V10.05H3.19999V9.79999H3.04999V9.54999H2.89999V9.29999H2.74999V9.54999H2.59999V9.79999H2.44999V10.05H2.74999V10.3H2.32499V10.05H2.17499V9.79999H2.02499V9.54999H2.17499V9.29999H2.32499V9.04999H2.47499V8.79999H2.62499V8.54999H2.74999V8.29999H2.89999V8.54999H3.04999V8.79999H3.19999V9.04999H3.34999V8.29999H3.19999V8.04999H3.04999V7.79999H2.89999V7.54999H2.74999V7.29999H2.89999V7.04999H3.04999V6.79999H3.19999V6.54999H3.34999V5.79999H3.19999V6.04999H3.04999V6.29999H2.89999V6.54999H2.74999V6.29999H2.59999V6.04999H2.44999V5.79999H2.29999V5.54999H2.14999V5.29999H1.99999V5.04999H2.14999V4.79999H2.29999V4.54999H2.74999V4.79999H2.44999V5.04999H2.59999V5.29999H2.74999V5.54999H2.89999V5.29999H3.04999V5.04999H3.19999V4.79999H3.34999V4.29999H3.19999V4.17499ZM2.17499 6.39999V6.64999H2.32499V6.89999H2.47499V8.14999H2.32499V8.39999H2.17499V8.64999H2.02499V8.89999H1.87499V9.14999H1.74999V9.39999H1.59999V9.14999H1.44999V8.89999H1.29999V8.64999H1.14999V8.39999H1.02499V8.14999H0.874988V6.89999H1.02499V6.64999H1.17499V6.39999H1.32499V6.14999H1.47499V5.89999H1.62499V5.64999H1.74999V5.89999H1.89999V6.14999H2.04999V6.39999H2.17499Z" fill="#C8313E"/>
<path d="M1.67498 6.39999H1.74998V6.14999H1.59998V6.39999H1.64998H1.67498Z" fill="#C8313E"/>
<path d="M1.29998 11.55H1.19998C1.22498 11.6 1.27498 11.65 1.29998 11.7V11.55Z" fill="#C8313E"/>
<path d="M1.44998 11.8H1.34998C1.37498 11.85 1.39998 11.875 1.44998 11.925V11.8Z" fill="#C8313E"/>
<path d="M1.59999 12.05H1.54999C1.57499 12.075 1.57499 12.1 1.59999 12.125V12.05Z" fill="#C8313E"/>
<path d="M3.19998 11.075H3.34998V11.325H3.19998V11.075Z" fill="#C8313E"/>
<path d="M3.19998 11.8H3.04998V11.55H2.89998V11.8H2.74998V12.05H2.59998V12.3H2.74998V12.55H2.89998V12.775H3.04998V12.55H3.19998V12.3H3.32498V12.05H3.19998V11.8Z" fill="#C8313E"/>
<path d="M1.875 12.3V12.475L1.95 12.55H2.025V12.625L2.175 12.775V12.55H2.325V12.3H2.475V12.05H2.325V11.8H2.175V11.55H2.025V11.8H1.875V12.05H1.75V12.3H1.875Z" fill="#C8313E"/>
<path d="M3.19998 13.025H3.34998V13.275H3.19998V13.025Z" fill="#C8313E"/>
<path d="M2.39999 13C2.64999 13.225 2.89999 13.45 3.17499 13.625V13.525H3.02499V13.275H2.87499V13.025H2.74999V12.775H2.59999V12.525H2.44999V12.775H2.29999V12.9L2.39999 13Z" fill="#C8313E"/>
<path d="M1.64998 11.075H1.59998V11.55H1.74998V11.075H1.67498H1.64998Z" fill="#C8313E"/>
<path d="M3.19998 9.35001H3.34998V9.60001H3.19998V9.35001Z" fill="#C8313E"/>
<path d="M2.32499 7.525V7.375H2.17499V7.625H2.32499V7.525Z" fill="#C8313E"/>
<path d="M1.64998 8.60001H1.59998V8.85001H1.74998V8.60001H1.67498H1.64998Z" fill="#C8313E"/>
<path d="M3.32501 10.5V13.725C4.52501 14.525 5.95001 15 7.50001 15C9.47501 15 11.25 14.25 12.6 13C13.35 12.3 13.975 11.45 14.375 10.5H3.32501Z" fill="#83BF4F"/>
<path d="M14.375 10.5C14.775 9.575 15 8.575 15 7.5C15 6.425 14.775 5.425 14.375 4.5C13.95 3.55 13.35 2.7 12.6 2C11.25 0.75 9.47501 0 7.50001 0C5.95001 0 4.52501 0.475 3.32501 1.275V10.5H14.375Z" fill="#C94747"/>
</svg>
