<svg width="15" height="15" viewBox="0 0 15 15" fill="none" xmlns="http://www.w3.org/2000/svg">
<path d="M4.99999 14.575V11.125L2.42499 13.025C3.14999 13.7 4.02499 14.225 4.99999 14.575Z" fill="#2A5F9E"/>
<path d="M10 14.575C10.975 14.225 11.85 13.7 12.575 13.025L10 11.1V14.575Z" fill="#2A5F9E"/>
<path d="M0.424988 10C0.499988 10.25 0.599988 10.475 0.724988 10.725L1.69999 10H0.424988Z" fill="#2A5F9E"/>
<path d="M13.3 10L14.275 10.725C14.375 10.5 14.475 10.25 14.575 10H13.3Z" fill="#2A5F9E"/>
<path d="M5.37502 9H0.150024C0.225024 9.35 0.325024 9.675 0.425024 10H1.70002L0.725024 10.725C0.925024 11.15 1.15002 11.525 1.42502 11.9L4.00002 10H5.00002V10.5L2.07502 12.65L2.42502 13L5.00002 11.125V14.575C5.32502 14.7 5.65002 14.775 6.00002 14.85V9H5.37502Z" fill="white"/>
<path d="M14.85 9H9V14.85C9.35 14.775 9.675 14.675 10 14.575V11.125L12.575 13C12.925 12.675 13.225 12.325 13.525 11.95L10.85 10H12.55L14.075 11.125C14.15 11 14.225 10.85 14.275 10.725L13.3 10H14.575C14.675 9.675 14.775 9.35 14.85 9Z" fill="white"/>
<path d="M1.42499 11.9C1.62499 12.175 1.82499 12.425 2.04999 12.675L4.99999 10.525V10.025H3.99999L1.42499 11.9Z" fill="#ED4C5C"/>
<path d="M10.875 10L13.55 11.95C13.65 11.825 13.725 11.7 13.825 11.575C13.85 11.55 13.85 11.525 13.875 11.525C13.95 11.4 14.05 11.25 14.125 11.125L12.55 10H10.875Z" fill="#ED4C5C"/>
<path d="M10 0.424988V3.87499L12.575 1.97499C11.85 1.29999 10.975 0.774988 10 0.424988Z" fill="#2A5F9E"/>
<path d="M4.99999 0.424988C4.02499 0.774988 3.14999 1.29999 2.42499 1.97499L4.99999 3.89999V0.424988Z" fill="#2A5F9E"/>
<path d="M14.575 4.99999C14.5 4.74999 14.4 4.52499 14.275 4.27499L13.3 4.99999H14.575Z" fill="#2A5F9E"/>
<path d="M1.69999 4.99999L0.724988 4.27499C0.624988 4.52499 0.524988 4.74999 0.424988 4.99999H1.69999Z" fill="#2A5F9E"/>
<path d="M9.625 5.99999H14.825C14.75 5.64999 14.65 5.32499 14.55 4.99999H13.275L14.25 4.27499C14.05 3.84999 13.825 3.47499 13.55 3.09999L11 4.99999H10V4.49999L12.925 2.34999L12.575 1.99999L10 3.87499V0.424994C9.675 0.299994 9.35 0.224994 9 0.149994V5.99999H9.625Z" fill="white"/>
<path d="M0.150024 5.99999H6.00002V0.149994C5.65002 0.224994 5.32502 0.324994 5.00002 0.424994V3.87499L2.42502 1.99999C2.07502 2.32499 1.77502 2.67499 1.47502 3.04999L4.15002 4.99999H2.45002L0.925024 3.87499C0.850024 3.99999 0.775024 4.14999 0.725024 4.27499L1.70002 4.99999H0.425024C0.325024 5.32499 0.225024 5.64999 0.150024 5.99999Z" fill="white"/>
<path d="M13.575 3.10001C13.375 2.82501 13.175 2.57501 12.95 2.32501L10 4.47501V4.97501H11L13.575 3.10001Z" fill="#ED4C5C"/>
<path d="M4.12502 4.99999L1.47502 3.04999C1.37502 3.17499 1.30002 3.29999 1.20002 3.42499C1.17502 3.44999 1.17502 3.47499 1.15002 3.47499C1.07502 3.59999 0.975024 3.74999 0.900024 3.87499L2.42502 4.99999H4.12502Z" fill="#ED4C5C"/>
<path d="M14.85 6H9V0.15C8.525 0.05 8.025 0 7.5 0C6.975 0 6.475 0.05 6 0.15V6H0.15C0.05 6.475 0 6.975 0 7.5C0 8.025 0.05 8.525 0.15 9H6V14.85C6.475 14.95 6.975 15 7.5 15C8.025 15 8.525 14.95 9 14.85V9H14.85C14.95 8.525 15 8.025 15 7.5C15 6.975 14.95 6.475 14.85 6Z" fill="#ED4C5C"/>
</svg>
