<svg width="15" height="15" viewBox="0 0 15 15" fill="none" xmlns="http://www.w3.org/2000/svg">
<path d="M8.90625 0.609375H6.09375C3.35156 1.17188 1.17188 3.32812 0.609375 6.09375V8.90625C1.17188 11.6719 3.35156 13.8281 6.09375 14.3906H8.90625C11.6719 13.8281 13.8281 11.6484 14.3906 8.90625V6.09375C13.8281 3.32812 11.6484 1.17188 8.90625 0.609375Z" fill="#F9F9F9"/>
<path d="M8.90625 6.09375V0.609375C8.46094 0.515625 7.99219 0.46875 7.5 0.46875C7.00781 0.46875 6.53906 0.515625 6.09375 0.609375V6.09375H0.609375C0.515625 6.53906 0.46875 7.00781 0.46875 7.5C0.46875 7.99219 0.515625 8.46094 0.609375 8.90625H6.09375V14.3906C6.53906 14.4844 7.00781 14.5312 7.5 14.5312C7.99219 14.5312 8.46094 14.4844 8.90625 14.3906V8.90625H14.3906C14.4844 8.46094 14.5312 7.99219 14.5312 7.5C14.5312 7.00781 14.4844 6.53906 14.3906 6.09375H8.90625Z" fill="#ED4C5C"/>
<path d="M4.21875 4.6875H3.28125L3.51562 3.28125L3.28125 1.875H4.21875L3.98438 3.28125L4.21875 4.6875Z" fill="#ED4C5C"/>
<path d="M2.34375 3.75V2.8125L3.75 3.04688L5.15625 2.8125V3.75L3.75 3.51562L2.34375 3.75ZM11.7188 4.6875H10.7812L11.0156 3.28125L10.7812 1.875H11.7188L11.4844 3.28125L11.7188 4.6875Z" fill="#ED4C5C"/>
<path d="M9.84375 3.75V2.8125L11.25 3.04688L12.6562 2.8125V3.75L11.25 3.51562L9.84375 3.75ZM4.21875 13.125H3.28125C3.28125 13.125 3.51562 12.0703 3.51562 11.7188C3.51562 11.3672 3.28125 10.3125 3.28125 10.3125H4.21875C4.21875 10.3125 3.98438 11.3672 3.98438 11.7188C3.98438 12.0703 4.21875 13.125 4.21875 13.125Z" fill="#ED4C5C"/>
<path d="M2.34375 12.1875V11.25L3.75 11.4844L5.15625 11.25V12.1875L3.75 11.9531L2.34375 12.1875ZM11.7188 13.125H10.7812L11.0156 11.7188L10.7812 10.3125H11.7188L11.4844 11.7188L11.7188 13.125Z" fill="#ED4C5C"/>
<path d="M9.84375 12.1875V11.25L11.25 11.4844L12.6562 11.25V12.1875L11.25 11.9531L9.84375 12.1875Z" fill="#ED4C5C"/>
</svg>
